…
```r
weather
```

```
## # A tibble: 3,655 x 26
##       X1 city  date        year month   day high_temp avg_temp low_temp
##    <dbl> <chr> <date>     <dbl> <dbl> <dbl>     <dbl>    <dbl>    <dbl>
##  1     1 Auck~ 2016-01-01  2016     1     1        68       65       62
##  2     2 Auck~ 2016-01-02  2016     1     2        68       66       64
##  3     3 Auck~ 2016-01-03  2016     1     3        77       72       66
##  4     4 Auck~ 2016-01-04  2016     1     4        73       66       60
##  5     5 Auck~ 2016-01-05  2016     1     5        69       62       55
##  6     6 Auck~ 2016-01-06  2016     1     6        69       63       57
##  7     7 Auck~ 2016-01-07  2016     1     7        71       66       60
##  8     8 Auck~ 2016-01-08  2016     1     8        77       70       64
##  9     9 Auck~ 2016-01-09  2016     1     9        69       66       64
## 10    10 Auck~ 2016-01-10  2016     1    10        71       66       62
## # ... with 3,645 more rows, and 17 more variables: high_dewpt <dbl>,
## #   avg_dewpt <dbl>, low_dewpt <dbl>, high_humidity <dbl>, avg_humidity <dbl>,
## #   low_humidity <dbl>, high_hg <dbl>, avg_hg <dbl>, low_hg <dbl>,
## #   high_vis <dbl>, avg_vis <dbl>, low_vis <dbl>, high_wind <dbl>,
## #   avg_wind <dbl>, low_wind <dbl>, precip <dbl>, events <chr>
```


```r
weather %>% 
  select(-"X1")
```

```
## # A tibble: 3,655 x 25
##    city  date        year month   day high_temp avg_temp low_temp high_dewpt
##    <chr> <date>     <dbl> <dbl> <dbl>     <dbl>    <dbl>    <dbl>      <dbl>
##  1 Auck~ 2016-01-01  2016     1     1        68       65       62         64
##  2 Auck~ 2016-01-02  2016     1     2        68       66       64         64
##  3 Auck~ 2016-01-03  2016     1     3        77       72       66         70
##  4 Auck~ 2016-01-04  2016     1     4        73       66       60         66
##  5 Auck~ 2016-01-05  2016     1     5        69       62       55         55
##  6 Auck~ 2016-01-06  2016     1     6        69       63       57         54
##  7 Auck~ 2016-01-07  2016     1     7        71       66       60         59
##  8 Auck~ 2016-01-08  2016     1     8        77       70       64         72
##  9 Auck~ 2016-01-09  2016     1     9        69       66       64         68
## 10 Auck~ 2016-01-10  2016     1    10        71       66       62         63
## # ... with 3,645 more rows, and 16 more variables: avg_dewpt <dbl>,
## #   low_dewpt <dbl>, high_humidity <dbl>, avg_humidity <dbl>,
## #   low_humidity <dbl>, high_hg <dbl>, avg_hg <dbl>, low_hg <dbl>,
## #   high_vis <dbl>, avg_vis <dbl>, low_vis <dbl>, high_wind <dbl>,
## #   avg_wind <dbl>, low_wind <dbl>, precip <dbl>, events <chr>
```
…
